{
  "aerial.nvim": { "branch": "master", "commit": "75de06f8edbd0006997a19b760045753d4f6693c" },
  "conjure": { "branch": "master", "commit": "e97e0db338f76f943f3043089000252adbecc966" },
  "deepwhite.nvim": { "branch": "main", "commit": "f1db7888f0a7cf84d6d802c17c074bccca0a72a5" },
  "everblush.vim": { "branch": "main", "commit": "7900e45c24b59ad8b0a0e1b1204f260d6909bc56" },
  "gruber-darker.nvim": { "branch": "main", "commit": "a2dda61d9c1225e16951a51d6b89795b0ac35cd6" },
  "grug-far.nvim": { "branch": "main", "commit": "aa5865f54932ae53c23abdd9902c3dc6d19e097a" },
  "gruvbox.nvim": { "branch": "main", "commit": "d4cde3853a172485961b515c36d51d757728d6e6" },
  "ivory": { "branch": "master", "commit": "73e3ed1fc98532172c0d3856459c78c26b58eace" },
  "kanagawa.nvim": { "branch": "master", "commit": "08ed29989834f5f2606cb1ef9d5b24c5ea7b8fa5" },
  "lazy.nvim": { "branch": "main", "commit": "eb4957442e3182f051b0ae11da32e06d22c190e3" },
  "mason-lspconfig.nvim": { "branch": "main", "commit": "8db12610bcb7ce67013cfdfaba4dd47a23c6e851" },
  "mason.nvim": { "branch": "main", "commit": "0950b15060067f752fde13a779a994f59516ce3d" },
  "nvim": { "branch": "main", "commit": "5215ea59df6d0a7e27da9a5cd1165e06d1b04cbe" },
  "nvim-lspconfig": { "branch": "master", "commit": "92166b89ab4b3d60f24e58170cac53b7141fd032" },
  "nvim-treesitter": { "branch": "master", "commit": "c5cbd3ec74f6f5ddbac939e6f24b99fe78262b4c" },
  "nvim-treesitter-context": { "branch": "master", "commit": "5efba33af0f39942e426340da7bc15d7dec16474" },
  "nvim-treesitter-textobjects": { "branch": "master", "commit": "34867c69838078df7d6919b130c0541c0b400c47" },
  "oil.nvim": { "branch": "master", "commit": "e5312c3a801e7274fa14e6a56aa10a618fed80c3" },
  "oxocarbon.nvim": { "branch": "main", "commit": "c5846d10cbe4131cc5e32c6d00beaf59cb60f6a2" },
  "plenary.nvim": { "branch": "master", "commit": "a3e3bc82a3f95c5ed0d7201546d5d2c19b20d683" },
  "refactoring.nvim": { "branch": "master", "commit": "d2786877c91aa409c824f27b4ce8a9f560dda60a" },
  "term-edit.nvim": { "branch": "master", "commit": "e04f69d5828c6e6a4d81c34f75f18762fad50372" },
  "wf.nvim": { "branch": "main", "commit": "716f2151bef7b38426a99802e89566ac9211978a" }
}